{
  "project_info": {
    "project_number": "1051013019981",
    "firebase_url": "https://liyathabara-671f5.firebaseio.com",
    "project_id": "liyathabara-671f5",
    "storage_bucket": "liyathabara-671f5.appspot.com"
  },
  "client": [
    {
      "client_info": {
        "mobilesdk_app_id": "1:1051013019981:android:c9842f33c057e4a8",
        "android_client_info": {
          "package_name": "com.npc.marry"
        }
      },
      "oauth_client": [
        {
          "client_id": "1051013019981-uncp0tcnmemrgri5b8bo735kthe5dmdm.apps.googleusercontent.com",
          "client_type": 1,
          "android_info": {
            "package_name": "com.npc.marry",
            "certificate_hash": "47a844dfe347641eae91ed89d7bd190a4a9bd845"
          }
        },
        {
          "client_id": "1051013019981-a97f5r4ebiq1rh8hp7av49c0q7682glt.apps.googleusercontent.com",
          "client_type": 3
        }
      ],
      "api_key": [
        {
          "current_key": "AIzaSyBD6KOeQ7SFCugnGVExHNsy57BH-oIX608"
        }
      ],
      "services": {
        "analytics_service": {
          "status": 1
        },
        "appinvite_service": {
          "status": 2,
          "other_platform_oauth_client": [
            {
              "client_id": "1051013019981-a97f5r4ebiq1rh8hp7av49c0q7682glt.apps.googleusercontent.com",
              "client_type": 3
            }
          ]
        },
        "ads_service": {
          "status": 2
        }
      }
    }
  ],
  "configuration_version": "1"
}